{
  "mounts": [
    {
      "mount_id": "ocm",
      "mount_point": "/ocm",
      "mount_options": {
      },
      "storage_driver": "ocm",
      "storage_options": {
      },
      "storage_wrappers": [
        {
          "name": "ocm",
          "priority": 0
        }	      
      ]
    },
    {
      "mount_id": "home",
      "mount_point": "/home",
      "mount_options": {},
      "storage_driver": "eos",
      "storage_options": {
        "namespace": "%%%EOS_PREFIX%%%",
        "master_url": "root://%%%EOS_MGM_ALIAS%%%",
        "enable_logging": true,
        "cache_directory": "/var/tmp/eos"
      },
      "storage_wrappers": [
        {
          "name": "home",
          "priority": 0
        }
      ]
    },
    {
      "mount_id": "shared-with-me",
      "mount_point": "/shared-with-me",
      "mount_options": {
        "sharing_disabled": true
      },
      "storage_driver": "share",
      "storage_options": {}
    },
    {
      "mount_id": "public-links",
      "mount_point": "/public-links",
      "mount_options": {
        "sharing_disabled": true
      },
      "storage_driver": "public_link",
      "storage_options": {}
    },
    {
      "mount_id": "oldeosproject",
      "mount_point": "/eos/project",
      "mount_options": {},
      "storage_driver": "eos",
      "storage_options": {
        "namespace": "%%%EOS_PROJECTPREFIX%%%",
        "master_url": "root://%%%EOS_MGM_ALIAS%%%",
        "enable_logging": true,
        "cache_directory": "/var/tmp/eos"
      }
    },
    {
      "mount_id": "oldproject",
      "mount_point": "/projects",
      "mount_options": {},
      "storage_driver": "all_projects",
      "storage_options": {}
    }
  ]
}